{
	"ImportPath": "try3",
	"GoVersion": "go1.11",
	"GodepVersion": "v80",
	"Packages": [
		"./..."
	],
	"Deps": [
		{
			"ImportPath": "github.com/armon/go-metrics",
			"Rev": "2801d9688273d5b516966851b9a0863b9e6b0652"
		},
		{
			"ImportPath": "github.com/go-log/log",
			"Comment": "v0.1.0-24-ga514cf0",
			"Rev": "a514cf01a3eb56ec6aff9ae5663453d990e68ed3"
		},
		{
			"ImportPath": "github.com/go-log/log/log",
			"Comment": "v0.1.0-24-ga514cf0",
			"Rev": "a514cf01a3eb56ec6aff9ae5663453d990e68ed3"
		},
		{
			"ImportPath": "github.com/golang/protobuf/proto",
			"Comment": "v1.2.0-40-g347cf4a",
			"Rev": "347cf4a86c1cb8d262994d8ef5924d4576c5b331"
		},
		{
			"ImportPath": "github.com/google/btree",
			"Rev": "4030bb1f1f0c35b30ca7009e9ebd06849dd45306"
		},
		{
			"ImportPath": "github.com/google/uuid",
			"Comment": "v1.1.1-7-gc2e93f3",
			"Rev": "c2e93f3ae59f2904160ceaab466009f965df46d6"
		},
		{
			"ImportPath": "github.com/hashicorp/consul/api",
			"Comment": "api/v1.0.1-159-g2febedd",
			"Rev": "2febedd17cc2846755974b058d7c97cc7d36f6c5"
		},
		{
			"ImportPath": "github.com/hashicorp/consul/api/watch",
			"Comment": "api/v1.0.1-159-g2febedd",
			"Rev": "2febedd17cc2846755974b058d7c97cc7d36f6c5"
		},
		{
			"ImportPath": "github.com/hashicorp/errwrap",
			"Comment": "v1.0.0",
			"Rev": "8a6fb523712970c966eefc6b39ed2c5e74880354"
		},
		{
			"ImportPath": "github.com/hashicorp/go-cleanhttp",
			"Comment": "v0.5.1-1-gd3fcbee",
			"Rev": "d3fcbee8e1810ecee4bdbf415f42f84cfd0e3361"
		},
		{
			"ImportPath": "github.com/hashicorp/go-immutable-radix",
			"Comment": "v1.0.0",
			"Rev": "27df80928bb34bb1b0d6d0e01b9e679902e7a6b5"
		},
		{
			"ImportPath": "github.com/hashicorp/go-msgpack/codec",
			"Comment": "v0.5.4",
			"Rev": "c4a1f61d43c2788b8b6fd55304f01a96863eec94"
		},
		{
			"ImportPath": "github.com/hashicorp/go-multierror",
			"Comment": "v1.0.0",
			"Rev": "886a7fbe3eb1c874d46f623bfa70af45f425b3d1"
		},
		{
			"ImportPath": "github.com/hashicorp/go-rootcerts",
			"Comment": "v1.0.0",
			"Rev": "63503fb4e1eca22f9ae0f90b49c5d5538a0e87eb"
		},
		{
			"ImportPath": "github.com/hashicorp/go-sockaddr",
			"Comment": "v1.0.2",
			"Rev": "c7188e74f6acae5a989bdc959aa779f8b9f42faf"
		},
		{
			"ImportPath": "github.com/hashicorp/golang-lru/simplelru",
			"Comment": "v0.5.0",
			"Rev": "20f1fb78b0740ba8c3cb143a61e86ba5c8669768"
		},
		{
			"ImportPath": "github.com/hashicorp/memberlist",
			"Comment": "v0.1.3-2-ga8f83c6",
			"Rev": "a8f83c6403e0c718e9336784a270c09dc4613d3e"
		},
		{
			"ImportPath": "github.com/hashicorp/serf/coordinate",
			"Comment": "v0.8.3",
			"Rev": "15cfd05de3dffb3664aa37b06e91f970b825e380"
		},
		{
			"ImportPath": "github.com/micro/cli",
			"Comment": "v0.1.0-2-gedf20bf",
			"Rev": "edf20bfe720f1ace8affc278814dfc372d02d6b7"
		},
		{
			"ImportPath": "github.com/micro/go-log",
			"Comment": "v0.1.0",
			"Rev": "5cb7bb4413f4ae8de0d7e826aa2854861d3a6c31"
		},
		{
			"ImportPath": "github.com/micro/go-micro",
			"Comment": "v1.1.0-9-ge4704a8",
			"Rev": "e4704a8f4116e0e2b10085918b0a57e2ac78d20d"
		},
		{
			"ImportPath": "github.com/micro/go-micro/broker",
			"Comment": "v1.1.0-9-ge4704a8",
			"Rev": "e4704a8f4116e0e2b10085918b0a57e2ac78d20d"
		},
		{
			"ImportPath": "github.com/micro/go-micro/broker/http",
			"Comment": "v1.1.0-9-ge4704a8",
			"Rev": "e4704a8f4116e0e2b10085918b0a57e2ac78d20d"
		},
		{
			"ImportPath": "github.com/micro/go-micro/broker/memory",
			"Comment": "v1.1.0-9-ge4704a8",
			"Rev": "e4704a8f4116e0e2b10085918b0a57e2ac78d20d"
		},
		{
			"ImportPath": "github.com/micro/go-micro/client",
			"Comment": "v1.1.0-9-ge4704a8",
			"Rev": "e4704a8f4116e0e2b10085918b0a57e2ac78d20d"
		},
		{
			"ImportPath": "github.com/micro/go-micro/cmd",
			"Comment": "v1.1.0-9-ge4704a8",
			"Rev": "e4704a8f4116e0e2b10085918b0a57e2ac78d20d"
		},
		{
			"ImportPath": "github.com/micro/go-micro/codec",
			"Comment": "v1.1.0-9-ge4704a8",
			"Rev": "e4704a8f4116e0e2b10085918b0a57e2ac78d20d"
		},
		{
			"ImportPath": "github.com/micro/go-micro/codec/bytes",
			"Comment": "v1.1.0-9-ge4704a8",
			"Rev": "e4704a8f4116e0e2b10085918b0a57e2ac78d20d"
		},
		{
			"ImportPath": "github.com/micro/go-micro/codec/grpc",
			"Comment": "v1.1.0-9-ge4704a8",
			"Rev": "e4704a8f4116e0e2b10085918b0a57e2ac78d20d"
		},
		{
			"ImportPath": "github.com/micro/go-micro/codec/json",
			"Comment": "v1.1.0-9-ge4704a8",
			"Rev": "e4704a8f4116e0e2b10085918b0a57e2ac78d20d"
		},
		{
			"ImportPath": "github.com/micro/go-micro/codec/jsonrpc",
			"Comment": "v1.1.0-9-ge4704a8",
			"Rev": "e4704a8f4116e0e2b10085918b0a57e2ac78d20d"
		},
		{
			"ImportPath": "github.com/micro/go-micro/codec/proto",
			"Comment": "v1.1.0-9-ge4704a8",
			"Rev": "e4704a8f4116e0e2b10085918b0a57e2ac78d20d"
		},
		{
			"ImportPath": "github.com/micro/go-micro/codec/protorpc",
			"Comment": "v1.1.0-9-ge4704a8",
			"Rev": "e4704a8f4116e0e2b10085918b0a57e2ac78d20d"
		},
		{
			"ImportPath": "github.com/micro/go-micro/errors",
			"Comment": "v1.1.0-9-ge4704a8",
			"Rev": "e4704a8f4116e0e2b10085918b0a57e2ac78d20d"
		},
		{
			"ImportPath": "github.com/micro/go-micro/metadata",
			"Comment": "v1.1.0-9-ge4704a8",
			"Rev": "e4704a8f4116e0e2b10085918b0a57e2ac78d20d"
		},
		{
			"ImportPath": "github.com/micro/go-micro/registry",
			"Comment": "v1.1.0-9-ge4704a8",
			"Rev": "e4704a8f4116e0e2b10085918b0a57e2ac78d20d"
		},
		{
			"ImportPath": "github.com/micro/go-micro/registry/consul",
			"Comment": "v1.1.0-9-ge4704a8",
			"Rev": "e4704a8f4116e0e2b10085918b0a57e2ac78d20d"
		},
		{
			"ImportPath": "github.com/micro/go-micro/registry/gossip",
			"Comment": "v1.1.0-9-ge4704a8",
			"Rev": "e4704a8f4116e0e2b10085918b0a57e2ac78d20d"
		},
		{
			"ImportPath": "github.com/micro/go-micro/registry/gossip/proto",
			"Comment": "v1.1.0-9-ge4704a8",
			"Rev": "e4704a8f4116e0e2b10085918b0a57e2ac78d20d"
		},
		{
			"ImportPath": "github.com/micro/go-micro/registry/mdns",
			"Comment": "v1.1.0-9-ge4704a8",
			"Rev": "e4704a8f4116e0e2b10085918b0a57e2ac78d20d"
		},
		{
			"ImportPath": "github.com/micro/go-micro/registry/memory",
			"Comment": "v1.1.0-9-ge4704a8",
			"Rev": "e4704a8f4116e0e2b10085918b0a57e2ac78d20d"
		},
		{
			"ImportPath": "github.com/micro/go-micro/selector",
			"Comment": "v1.1.0-9-ge4704a8",
			"Rev": "e4704a8f4116e0e2b10085918b0a57e2ac78d20d"
		},
		{
			"ImportPath": "github.com/micro/go-micro/selector/dns",
			"Comment": "v1.1.0-9-ge4704a8",
			"Rev": "e4704a8f4116e0e2b10085918b0a57e2ac78d20d"
		},
		{
			"ImportPath": "github.com/micro/go-micro/selector/static",
			"Comment": "v1.1.0-9-ge4704a8",
			"Rev": "e4704a8f4116e0e2b10085918b0a57e2ac78d20d"
		},
		{
			"ImportPath": "github.com/micro/go-micro/server",
			"Comment": "v1.1.0-9-ge4704a8",
			"Rev": "e4704a8f4116e0e2b10085918b0a57e2ac78d20d"
		},
		{
			"ImportPath": "github.com/micro/go-micro/server/debug",
			"Comment": "v1.1.0-9-ge4704a8",
			"Rev": "e4704a8f4116e0e2b10085918b0a57e2ac78d20d"
		},
		{
			"ImportPath": "github.com/micro/go-micro/server/debug/proto",
			"Comment": "v1.1.0-9-ge4704a8",
			"Rev": "e4704a8f4116e0e2b10085918b0a57e2ac78d20d"
		},
		{
			"ImportPath": "github.com/micro/go-micro/transport",
			"Comment": "v1.1.0-9-ge4704a8",
			"Rev": "e4704a8f4116e0e2b10085918b0a57e2ac78d20d"
		},
		{
			"ImportPath": "github.com/micro/go-micro/transport/http",
			"Comment": "v1.1.0-9-ge4704a8",
			"Rev": "e4704a8f4116e0e2b10085918b0a57e2ac78d20d"
		},
		{
			"ImportPath": "github.com/micro/go-micro/transport/memory",
			"Comment": "v1.1.0-9-ge4704a8",
			"Rev": "e4704a8f4116e0e2b10085918b0a57e2ac78d20d"
		},
		{
			"ImportPath": "github.com/micro/go-rcache",
			"Comment": "v0.3.0-2-g2c4d7ce",
			"Rev": "2c4d7ce6742999be1708c70a3638f2c0ce28f2cd"
		},
		{
			"ImportPath": "github.com/micro/mdns",
			"Comment": "v0.1.0",
			"Rev": "3a29b6675e7404722eed4d4dde532c2e103007a7"
		},
		{
			"ImportPath": "github.com/micro/util/go/lib/addr",
			"Comment": "v0.2.0-2-gb9d497e",
			"Rev": "b9d497e656ef2a7ae781bd909cfc938144a653ff"
		},
		{
			"ImportPath": "github.com/micro/util/go/lib/net",
			"Comment": "v0.2.0-2-gb9d497e",
			"Rev": "b9d497e656ef2a7ae781bd909cfc938144a653ff"
		},
		{
			"ImportPath": "github.com/micro/util/go/lib/tls",
			"Comment": "v0.2.0-2-gb9d497e",
			"Rev": "b9d497e656ef2a7ae781bd909cfc938144a653ff"
		},
		{
			"ImportPath": "github.com/miekg/dns",
			"Comment": "v1.1.8-1-gcfee849",
			"Rev": "cfee849963ab7a27e9597c40aee1e903f8e55ce2"
		},
		{
			"ImportPath": "github.com/mitchellh/go-homedir",
			"Comment": "v1.1.0",
			"Rev": "af06845cf3004701891bf4fdb884bfe4920b3727"
		},
		{
			"ImportPath": "github.com/mitchellh/hashstructure",
			"Comment": "v1.0.0",
			"Rev": "a38c50148365edc8df43c1580c48fb2b3a1e9cd7"
		},
		{
			"ImportPath": "github.com/mitchellh/mapstructure",
			"Comment": "v1.1.2",
			"Rev": "3536a929edddb9a5b34bd6861dc4a9647cb459fe"
		},
		{
			"ImportPath": "github.com/pkg/errors",
			"Comment": "v0.8.0-17-g059132a",
			"Rev": "059132a15dd08d6704c67711dae0cf35ab991756"
		},
		{
			"ImportPath": "github.com/sean-/seed",
			"Rev": "e2103e2c35297fb7e17febb81e49b312087a2372"
		},
		{
			"ImportPath": "gitlab.com/gitlab-org/project-templates/go-micro/proto",
			"Rev": "1385fab987bc06991f71d4cde2999ba622f034dc"
		},
		{
			"ImportPath": "golang.org/x/crypto/ed25519",
			"Rev": "505ab145d0a99da450461ae2c1a9f6cd10d1f447"
		},
		{
			"ImportPath": "golang.org/x/crypto/ed25519/internal/edwards25519",
			"Rev": "505ab145d0a99da450461ae2c1a9f6cd10d1f447"
		},
		{
			"ImportPath": "golang.org/x/net/bpf",
			"Rev": "d26f9f9a57f3fab6a695bec0d84433c2c50f8bbf"
		},
		{
			"ImportPath": "golang.org/x/net/http/httpguts",
			"Rev": "d26f9f9a57f3fab6a695bec0d84433c2c50f8bbf"
		},
		{
			"ImportPath": "golang.org/x/net/http2",
			"Rev": "d26f9f9a57f3fab6a695bec0d84433c2c50f8bbf"
		},
		{
			"ImportPath": "golang.org/x/net/http2/h2c",
			"Rev": "d26f9f9a57f3fab6a695bec0d84433c2c50f8bbf"
		},
		{
			"ImportPath": "golang.org/x/net/http2/hpack",
			"Rev": "d26f9f9a57f3fab6a695bec0d84433c2c50f8bbf"
		},
		{
			"ImportPath": "golang.org/x/net/idna",
			"Rev": "d26f9f9a57f3fab6a695bec0d84433c2c50f8bbf"
		},
		{
			"ImportPath": "golang.org/x/net/internal/iana",
			"Rev": "d26f9f9a57f3fab6a695bec0d84433c2c50f8bbf"
		},
		{
			"ImportPath": "golang.org/x/net/internal/socket",
			"Rev": "d26f9f9a57f3fab6a695bec0d84433c2c50f8bbf"
		},
		{
			"ImportPath": "golang.org/x/net/ipv4",
			"Rev": "d26f9f9a57f3fab6a695bec0d84433c2c50f8bbf"
		},
		{
			"ImportPath": "golang.org/x/net/ipv6",
			"Rev": "d26f9f9a57f3fab6a695bec0d84433c2c50f8bbf"
		},
		{
			"ImportPath": "golang.org/x/sys/unix",
			"Rev": "aca44879d5644da7c5b8ec6a1115e9b6ea6c40d9"
		},
		{
			"ImportPath": "golang.org/x/text/secure/bidirule",
			"Comment": "v0.3.0-69-ge6919f6",
			"Rev": "e6919f6577db79269a6443b9dc46d18f2238fb5d"
		},
		{
			"ImportPath": "golang.org/x/text/transform",
			"Comment": "v0.3.0-69-ge6919f6",
			"Rev": "e6919f6577db79269a6443b9dc46d18f2238fb5d"
		},
		{
			"ImportPath": "golang.org/x/text/unicode/bidi",
			"Comment": "v0.3.0-69-ge6919f6",
			"Rev": "e6919f6577db79269a6443b9dc46d18f2238fb5d"
		},
		{
			"ImportPath": "golang.org/x/text/unicode/norm",
			"Comment": "v0.3.0-69-ge6919f6",
			"Rev": "e6919f6577db79269a6443b9dc46d18f2238fb5d"
		}
	]
}
